module gitlab.com/andrewvwebber/tinyurl

go 1.13

require (
	github.com/couchbase/gocb v1.6.4
	github.com/golang/snappy v0.0.1 // indirect
	github.com/google/uuid v1.1.1 // indirect
	github.com/labstack/echo/v4 v4.1.13
	github.com/opentracing/opentracing-go v1.1.0 // indirect
	github.com/rs/xid v1.2.1
	golang.org/x/crypto v0.0.0-20200117160349-530e935923ad // indirect
	golang.org/x/net v0.0.0-20200114155413-6afb5195e5aa // indirect
	golang.org/x/sys v0.0.0-20200117145432-59e60aa80a0c // indirect
	gopkg.in/couchbase/gocbcore.v7 v7.1.15 // indirect
	gopkg.in/couchbaselabs/gocbconnstr.v1 v1.0.4 // indirect
	gopkg.in/couchbaselabs/jsonx.v1 v1.0.0 // indirect
)
